%YAML 1.1
%TAG !u! tag:unity3d.com,2011:
--- !u!1045 &1
EditorBuildSettings:
  m_ObjectHideFlags: 0
  serializedVersion: 2
  m_Scenes:
  - enabled: 0
    path: Assets/Scene/Menu/Main_Menu.unity
    guid: dc88fd879286894449f4dab4053be857
  - enabled: 0
    path: Assets/Scene/lvl1.unity
    guid: 17e68c68c81a6db4ab851171ce7d7395
  - enabled: 1
    path: Assets/Scene/DemoScene.unity
    guid: 7801735038ce0064280b5ffa18b2e3f1
  - enabled: 0
    path: Assets/Scene/Menu/Scene_Lobby.unity
    guid: 4a295782ed5459f4ca6e17299e5ec78a
  m_configObjects: {}
